{
  "manage": {
    "name": "Manage",
    "section": "dev",
    "groups": [
      "authentication_and_authorization",
      "workspace",
      "import",
      "integrations",
      "foundations"
    ],
    "label": "devops::manage"
  },
  "plan": {
    "name": "Plan",
    "section": "dev",
    "groups": [
      "project_management",
      "product_planning",
      "certify",
      "optimize"
    ],
    "label": "devops::plan"
  },
  "create": {
    "name": "Create",
    "section": "dev",
    "groups": [
      "source_code",
      "code_review",
      "editor"
    ],
    "label": "devops::create"
  },
  "verify": {
    "name": "Verify",
    "section": "ops",
    "groups": [
      "pipeline_execution",
      "pipeline_authoring",
      "runner",
      "pipeline_insights"
    ],
    "label": "devops::verify"
  },
  "package": {
    "name": "Package",
    "section": "ops",
    "groups": [
      "package_registry",
      "container_registry"
    ],
    "label": "devops::package"
  },
  "secure": {
    "name": "Secure",
    "section": "sec",
    "groups": [
      "static_analysis",
      "dynamic_analysis",
      "composition_analysis",
      "vulnerability_research"
    ],
    "label": "devops::secure"
  },
  "anti-abuse": {
    "name": "Anti-Abuse",
    "section": "data-science",
    "groups": [
      "anti-abuse"
    ],
    "label": "devops::anti-abuse"
  },
  "release": {
    "name": "Release",
    "section": "ops",
    "groups": [
      "release"
    ],
    "label": "devops::release"
  },
  "configure": {
    "name": "Configure",
    "section": "ops",
    "groups": [
      "configure"
    ],
    "label": "devops::configure"
  },
  "monitor": {
    "name": "Monitor",
    "section": "ops",
    "groups": [
      "respond",
      "observability"
    ],
    "label": "devops::monitor"
  },
  "govern": {
    "name": "Govern",
    "section": "sec",
    "groups": [
      "security_policies",
      "threat_insights",
      "compliance"
    ],
    "label": "devops::govern"
  },
  "analytics": {
    "name": "Analytics",
    "section": "analytics",
    "groups": [
      "product_intelligence",
      "product_analytics"
    ],
    "label": "devops::analytics"
  },
  "fulfillment": {
    "name": "Fulfillment",
    "section": "fulfillment",
    "groups": [
      "purchase",
      "provision",
      "utilization",
      "fulfillment_platform",
      "billing_and_subscription_management",
      "commerce_integrations",
      "fulfillment_admin_tooling"
    ],
    "label": "devops::fulfillment"
  },
  "growth": {
    "name": "Growth",
    "section": "growth",
    "groups": [
      "acquisition",
      "activation"
    ],
    "label": "devops::growth"
  },
  "systems": {
    "name": "Systems",
    "section": "enablement",
    "groups": [
      "distribution_build",
      "distribution_deploy",
      "gitaly_cluster",
      "gitaly_git",
      "geo"
    ],
    "label": "devops::systems"
  },
  "data_stores": {
    "name": "Data Stores",
    "section": "enablement",
    "groups": [
      "application_performance",
      "global_search",
      "database",
      "pods"
    ],
    "label": "devops::data_stores"
  },
  "platforms": {
    "name": "SaaS Platforms",
    "section": "platforms",
    "groups": [
      "delivery",
      "scalability",
      "dedicated",
      "pubsec_services"
    ],
    "label": "devops::platforms"
  },
  "modelops": {
    "name": "ModelOps",
    "section": "data-science",
    "groups": [
      "applied_ml",
      "mlops",
      "dataops"
    ],
    "label": "devops::modelops"
  },
  "mobile": {
    "name": "Mobile",
    "section": "seg",
    "groups": [
      "moble_devops"
    ],
    "label": "devops::mobile"
  },
  "deploy": {
    "name": "Deploy",
    "section": "seg",
    "groups": [
      "5-min-app"
    ],
    "label": "devops::deploy"
  }
}
